%YAML 1.1
%TAG !u! tag:unity3d.com,2011:
--- !u!74 &7400000
AnimationClip:
  m_ObjectHideFlags: 0
  m_PrefabParentObject: {fileID: 0}
  m_PrefabInternal: {fileID: 0}
  m_Name: DoorOpenFull
  serializedVersion: 6
  m_Legacy: 1
  m_Compressed: 0
  m_UseHighQualityCurve: 1
  m_RotationCurves:
  - curve:
      serializedVersion: 2
      m_Curve:
      - time: 0
        value: {x: .701057374, y: .0922959298, z: -.0922959298, w: .701057374}
        inSlope: {x: 3.74714496e-39, y: 4.43072386e-38, z: NaN, w: 3.74710572e-39}
        outSlope: {x: .0533461533, y: -.405795842, z: .405795842, w: .0533461533}
        tangentMode: 57
      - time: .400000036
        value: {x: .700862527, y: -.0937642083, z: .0937642083, w: .700862527}
        inSlope: {x: -.0560283624, y: -.419411778, z: .419411778, w: -.0560283624}
        outSlope: {x: -.0583699718, y: -.4354119, z: .4354119, w: -.0583699718}
        tangentMode: 0
      - time: .866666734
        value: {x: .677446604, y: -.202647731, z: .202647731, w: .677446604}
        inSlope: {x: -.00434262399, y: -.0145286312, z: .0145286312, w: -.00434262399}
        outSlope: {x: -.00437100884, y: -.0145534724, z: .0145534724, w: -.00437100884}
        tangentMode: 0
      - time: 1.16666663
        value: {x: .680696607, y: -.191447482, z: .191447482, w: .680696607}
        inSlope: {x: -.0359614827, y: -.128199697, z: .128199697, w: -.0359614827}
        outSlope: {x: -.0362098254, y: -.128410771, z: .128410771, w: -.0362098254}
        tangentMode: 0
      - time: 1.43333328
        value: {x: .68710202, y: -.16700533, z: .16700533, w: .68710202}
        inSlope: {x: .133439913, y: .548567653, z: -.548567653, w: .133439913}
        outSlope: {x: .126063794, y: .518485785, z: -.518485785, w: .126063794}
        tangentMode: 0
      - time: 1.63333333
        value: {x: .70710659, y: .000509155972, z: -.000509155972, w: .70710659}
        inSlope: {x: -.000596046331, y: .929725289, z: -.929725289, w: -.000596046331}
        outSlope: {x: -.000596046331, y: .965438426, z: -.965438426, w: -.000596046331}
        tangentMode: 1
      - time: 1.73333335
        value: {x: .701057374, y: .0922959298, z: -.0922959298, w: .701057374}
        inSlope: {x: -.113248795, y: .861808479, z: -.861808479, w: -.113248795}
        outSlope: {x: 5.89824741e-39, y: 3.62145557e-12, z: 3.74713375e-39, w: 3.48955782e-13}
        tangentMode: 66831
      m_PreInfinity: 2
      m_PostInfinity: 2
    path: Door/Handle
  - curve:
      serializedVersion: 2
      m_Curve:
      - time: .333333343
        value: {x: .707106769, y: -1.24353294e-09, z: -1.24353294e-09, w: -.707106769}
        inSlope: {x: 3.74799695e-39, y: 4.43072386e-38, z: NaN, w: 3.74795771e-39}
        outSlope: {x: -3.57627869e-05, y: -.126076117, z: -.126076117, w: 3.57627869e-05}
        tangentMode: 1025
      - time: 2
        value: {x: .45451948, y: -.54167521, z: -.54167521, w: -.45451948}
        inSlope: {x: -.0470995903, y: -.0395178795, z: -.0395178795, w: .0470995903}
        outSlope: {x: 5.89824741e-39, y: 3.62145557e-12, z: 3.74798574e-39, w: 3.48955782e-13}
        tangentMode: 732430372
      m_PreInfinity: 2
      m_PostInfinity: 2
    path: Door
  m_CompressedRotationCurves: []
  m_PositionCurves: []
  m_ScaleCurves:
  - curve:
      serializedVersion: 2
      m_Curve:
      - time: .333333343
        value: {x: .131890535, y: .131890535, z: .131890535}
        inSlope: {x: 0, y: 0, z: 0}
        outSlope: {x: 0, y: 0, z: 0}
        tangentMode: 0
      m_PreInfinity: 2
      m_PostInfinity: 2
    path: Door
  m_FloatCurves: []
  m_PPtrCurves: []
  m_SampleRate: 30
  m_WrapMode: 0
  m_Bounds:
    m_Center: {x: -.00694394112, y: 1.23038948, z: -.158292711}
    m_Extent: {x: .483805597, y: 1.2298795, z: .25464797}
  m_ClipBindingConstant:
    genericBindings: []
    pptrCurveMapping: []
  m_AnimationClipSettings:
    serializedVersion: 2
    m_StartTime: 0
    m_StopTime: 2
    m_OrientationOffsetY: 0
    m_Level: 0
    m_CycleOffset: 0
    m_LoopTime: 0
    m_LoopBlend: 0
    m_LoopBlendOrientation: 0
    m_LoopBlendPositionY: 0
    m_LoopBlendPositionXZ: 0
    m_KeepOriginalOrientation: 0
    m_KeepOriginalPositionY: 1
    m_KeepOriginalPositionXZ: 0
    m_HeightFromFeet: 0
    m_Mirror: 0
  m_EditorCurves:
  - curve:
      serializedVersion: 2
      m_Curve:
      - time: 0
        value: .701057374
        inSlope: 3.74710572e-39
        outSlope: .0533461533
        tangentMode: 0
      - time: .400000036
        value: .700862527
        inSlope: -.0560283624
        outSlope: -.0583699718
        tangentMode: 0
      - time: .866666734
        value: .677446604
        inSlope: -.00434262399
        outSlope: -.00437100884
        tangentMode: 0
      - time: 1.16666663
        value: .680696607
        inSlope: -.0359614827
        outSlope: -.0362098254
        tangentMode: 0
      - time: 1.43333328
        value: .68710202
        inSlope: .133439913
        outSlope: .126063794
        tangentMode: 0
      - time: 1.63333333
        value: .70710659
        inSlope: -.000596046331
        outSlope: -.000596046331
        tangentMode: 0
      - time: 1.73333335
        value: .701057374
        inSlope: -.113248795
        outSlope: 3.48955782e-13
        tangentMode: 0
      m_PreInfinity: 2
      m_PostInfinity: 2
    attribute: m_LocalRotation.w
    path: Door/Handle
    classID: 4
    script: {fileID: 0}
  - curve:
      serializedVersion: 2
      m_Curve:
      - time: 0
        value: -.0922959298
        inSlope: NaN
        outSlope: .405795842
        tangentMode: 0
      - time: .400000036
        value: .0937642083
        inSlope: .419411778
        outSlope: .4354119
        tangentMode: 0
      - time: .866666734
        value: .202647731
        inSlope: .0145286312
        outSlope: .0145534724
        tangentMode: 0
      - time: 1.16666663
        value: .191447482
        inSlope: .128199697
        outSlope: .128410771
        tangentMode: 0
      - time: 1.43333328
        value: .16700533
        inSlope: -.548567653
        outSlope: -.518485785
        tangentMode: 0
      - time: 1.63333333
        value: -.000509155972
        inSlope: -.929725289
        outSlope: -.965438426
        tangentMode: 0
      - time: 1.73333335
        value: -.0922959298
        inSlope: -.861808479
        outSlope: 3.74713375e-39
        tangentMode: 0
      m_PreInfinity: 2
      m_PostInfinity: 2
    attribute: m_LocalRotation.z
    path: Door/Handle
    classID: 4
    script: {fileID: 0}
  - curve:
      serializedVersion: 2
      m_Curve:
      - time: 0
        value: .0922959298
        inSlope: 4.43072386e-38
        outSlope: -.405795842
        tangentMode: 0
      - time: .400000036
        value: -.0937642083
        inSlope: -.419411778
        outSlope: -.4354119
        tangentMode: 0
      - time: .866666734
        value: -.202647731
        inSlope: -.0145286312
        outSlope: -.0145534724
        tangentMode: 0
      - time: 1.16666663
        value: -.191447482
        inSlope: -.128199697
        outSlope: -.128410771
        tangentMode: 0
      - time: 1.43333328
        value: -.16700533
        inSlope: .548567653
        outSlope: .518485785
        tangentMode: 0
      - time: 1.63333333
        value: .000509155972
        inSlope: .929725289
        outSlope: .965438426
        tangentMode: 0
      - time: 1.73333335
        value: .0922959298
        inSlope: .861808479
        outSlope: 3.62145557e-12
        tangentMode: 0
      m_PreInfinity: 2
      m_PostInfinity: 2
    attribute: m_LocalRotation.y
    path: Door/Handle
    classID: 4
    script: {fileID: 0}
  - curve:
      serializedVersion: 2
      m_Curve:
      - time: 0
        value: .701057374
        inSlope: 3.74714496e-39
        outSlope: .0533461533
        tangentMode: 0
      - time: .400000036
        value: .700862527
        inSlope: -.0560283624
        outSlope: -.0583699718
        tangentMode: 0
      - time: .866666734
        value: .677446604
        inSlope: -.00434262399
        outSlope: -.00437100884
        tangentMode: 0
      - time: 1.16666663
        value: .680696607
        inSlope: -.0359614827
        outSlope: -.0362098254
        tangentMode: 0
      - time: 1.43333328
        value: .68710202
        inSlope: .133439913
        outSlope: .126063794
        tangentMode: 0
      - time: 1.63333333
        value: .70710659
        inSlope: -.000596046331
        outSlope: -.000596046331
        tangentMode: 0
      - time: 1.73333335
        value: .701057374
        inSlope: -.113248795
        outSlope: 5.89824741e-39
        tangentMode: 0
      m_PreInfinity: 2
      m_PostInfinity: 2
    attribute: m_LocalRotation.x
    path: Door/Handle
    classID: 4
    script: {fileID: 0}
  - curve:
      serializedVersion: 2
      m_Curve:
      - time: .333333343
        value: .131890535
        inSlope: 0
        outSlope: 0
        tangentMode: 0
      m_PreInfinity: 2
      m_PostInfinity: 2
    attribute: m_LocalScale.z
    path: Door
    classID: 4
    script: {fileID: 0}
  - curve:
      serializedVersion: 2
      m_Curve:
      - time: .333333343
        value: .131890535
        inSlope: 0
        outSlope: 0
        tangentMode: 0
      m_PreInfinity: 2
      m_PostInfinity: 2
    attribute: m_LocalScale.y
    path: Door
    classID: 4
    script: {fileID: 0}
  - curve:
      serializedVersion: 2
      m_Curve:
      - time: .333333343
        value: .131890535
        inSlope: 0
        outSlope: 0
        tangentMode: 0
      m_PreInfinity: 2
      m_PostInfinity: 2
    attribute: m_LocalScale.x
    path: Door
    classID: 4
    script: {fileID: 0}
  - curve:
      serializedVersion: 2
      m_Curve:
      - time: .333333343
        value: .707106769
        inSlope: 3.74799695e-39
        outSlope: -3.57627869e-05
        tangentMode: 0
      - time: 2
        value: .45451948
        inSlope: -.0470995903
        outSlope: 5.89824741e-39
        tangentMode: 0
      m_PreInfinity: 2
      m_PostInfinity: 2
    attribute: m_LocalRotation.x
    path: Door
    classID: 4
    script: {fileID: 0}
  - curve:
      serializedVersion: 2
      m_Curve:
      - time: .333333343
        value: -1.24353294e-09
        inSlope: 4.43072386e-38
        outSlope: -.126076117
        tangentMode: 0
      - time: 2
        value: -.54167521
        inSlope: -.0395178795
        outSlope: 3.62145557e-12
        tangentMode: 0
      m_PreInfinity: 2
      m_PostInfinity: 2
    attribute: m_LocalRotation.y
    path: Door
    classID: 4
    script: {fileID: 0}
  - curve:
      serializedVersion: 2
      m_Curve:
      - time: .333333343
        value: -1.24353294e-09
        inSlope: NaN
        outSlope: -.126076117
        tangentMode: 0
      - time: 2
        value: -.54167521
        inSlope: -.0395178795
        outSlope: 3.74798574e-39
        tangentMode: 0
      m_PreInfinity: 2
      m_PostInfinity: 2
    attribute: m_LocalRotation.z
    path: Door
    classID: 4
    script: {fileID: 0}
  - curve:
      serializedVersion: 2
      m_Curve:
      - time: .333333343
        value: -.707106769
        inSlope: 3.74795771e-39
        outSlope: 3.57627869e-05
        tangentMode: 0
      - time: 2
        value: -.45451948
        inSlope: .0470995903
        outSlope: 3.48955782e-13
        tangentMode: 0
      m_PreInfinity: 2
      m_PostInfinity: 2
    attribute: m_LocalRotation.w
    path: Door
    classID: 4
    script: {fileID: 0}
  m_EulerEditorCurves:
  - curve:
      serializedVersion: 2
      m_Curve:
      - time: .333333343
        value: 270
        inSlope: 0
        outSlope: 0
        tangentMode: 0
      - time: 2
        value: 270
        inSlope: 0
        outSlope: 0
        tangentMode: 0
      m_PreInfinity: 2
      m_PostInfinity: 2
    attribute: localEulerAngles.x
    path: Door
    classID: 4
    script: {fileID: 0}
  - curve:
      serializedVersion: 2
      m_Curve:
      - time: .333333343
        value: 2.01523136e-07
        inSlope: 20.3020477
        outSlope: 20.3020477
        tangentMode: 0
      - time: 2
        value: 100
        inSlope: 9.82502747
        outSlope: 9.82379818
        tangentMode: 0
      m_PreInfinity: 2
      m_PostInfinity: 2
    attribute: localEulerAngles.y
    path: Door
    classID: 4
    script: {fileID: 0}
  - curve:
      serializedVersion: 2
      m_Curve:
      - time: .333333343
        value: 0
        inSlope: 0
        outSlope: 0
        tangentMode: 0
      - time: 2
        value: 0
        inSlope: 0
        outSlope: 0
        tangentMode: 0
      m_PreInfinity: 2
      m_PostInfinity: 2
    attribute: localEulerAngles.z
    path: Door
    classID: 4
    script: {fileID: 0}
  - curve:
      serializedVersion: 2
      m_Curve:
      - time: 0
        value: 90
        inSlope: 0
        outSlope: 0
        tangentMode: 0
      - time: .400000036
        value: 90
        inSlope: 0
        outSlope: 0
        tangentMode: 0
      - time: .866666734
        value: 90
        inSlope: 0
        outSlope: 0
        tangentMode: 0
      - time: 1.16666663
        value: 90
        inSlope: 0
        outSlope: 0
        tangentMode: 0
      - time: 1.43333328
        value: 90
        inSlope: 0
        outSlope: 0
        tangentMode: 0
      - time: 1.63333333
        value: 90
        inSlope: 0
        outSlope: 0
        tangentMode: 0
      - time: 1.73333335
        value: 90
        inSlope: 0
        outSlope: 0
        tangentMode: 0
      m_PreInfinity: 2
      m_PostInfinity: 2
    attribute: localEulerAngles.x
    path: Door/Handle
    classID: 4
    script: {fileID: 0}
  - curve:
      serializedVersion: 2
      m_Curve:
      - time: 0
        value: 14.9999962
        inSlope: -69.0056915
        outSlope: -69.0056915
        tangentMode: 0
      - time: .400000036
        value: 344.759979
        inSlope: -71.2939377
        outSlope: -71.2347565
        tangentMode: 0
      - time: .866666734
        value: 326.692505
        inSlope: -2.44700813
        outSlope: -2.44704294
        tangentMode: 0
      - time: 1.16666663
        value: 328.582489
        inSlope: -21.5908813
        outSlope: -21.5977497
        tangentMode: 0
      - time: 1.43333328
        value: 332.67749
        inSlope: 91.6558533
        outSlope: 91.7179642
        tangentMode: 0
      - time: 1.63333333
        value: .0825122669
        inSlope: 156.112244
        outSlope: 156.43631
        tangentMode: 0
      - time: 1.73333335
        value: 14.9999962
        inSlope: 140.837997
        outSlope: 140.837997
        tangentMode: 0
      m_PreInfinity: 2
      m_PostInfinity: 2
    attribute: localEulerAngles.y
    path: Door/Handle
    classID: 4
    script: {fileID: 0}
  - curve:
      serializedVersion: 2
      m_Curve:
      - time: 0
        value: 0
        inSlope: 0
        outSlope: 0
        tangentMode: 0
      - time: .400000036
        value: 0
        inSlope: 0
        outSlope: 0
        tangentMode: 0
      - time: .866666734
        value: 0
        inSlope: 0
        outSlope: 0
        tangentMode: 0
      - time: 1.16666663
        value: 0
        inSlope: 0
        outSlope: 0
        tangentMode: 0
      - time: 1.43333328
        value: 0
        inSlope: 0
        outSlope: 0
        tangentMode: 0
      - time: 1.63333333
        value: 0
        inSlope: 0
        outSlope: 0
        tangentMode: 0
      - time: 1.73333335
        value: 0
        inSlope: 0
        outSlope: 0
        tangentMode: 0
      m_PreInfinity: 2
      m_PostInfinity: 2
    attribute: localEulerAngles.z
    path: Door/Handle
    classID: 4
    script: {fileID: 0}
  m_HasGenericRootTransform: 0
  m_HasMotionFloatCurves: 0
  m_GenerateMotionCurves: 0
  m_Events: []
