%YAML 1.1
%TAG !u! tag:unity3d.com,2011:
--- !u!74 &7400000
AnimationClip:
  m_ObjectHideFlags: 0
  m_PrefabParentObject: {fileID: 0}
  m_PrefabInternal: {fileID: 0}
  m_Name: WindowShut 1
  serializedVersion: 6
  m_Legacy: 1
  m_Compressed: 0
  m_UseHighQualityCurve: 1
  m_RotationCurves:
  - curve:
      serializedVersion: 2
      m_Curve:
      - time: 0
        value: {x: 0, y: .26377359, z: 0, w: .964584649}
        inSlope: {x: 0, y: 14.0617361, z: 0, w: -5.84913921}
        outSlope: {x: 0, y: 14.0617361, z: 0, w: -5.84913921}
        tangentMode: 0
      - time: .0166666675
        value: {x: 0, y: .498135865, z: 0, w: .867098987}
        inSlope: {x: 0, y: 13.0989027, z: 0, w: -7.5251317}
        outSlope: {x: 0, y: 13.0989027, z: 0, w: -7.5251317}
        tangentMode: 0
      - time: .0333333351
        value: {x: 0, y: .70040369, z: 0, w: .713746905}
        inSlope: {x: 0, y: 12.1360693, z: 0, w: -9.20112419}
        outSlope: {x: 0, y: 12.1360693, z: 0, w: -9.20112419}
        tangentMode: 0
      m_PreInfinity: 2
      m_PostInfinity: 2
    path: 
  m_CompressedRotationCurves: []
  m_PositionCurves:
  - curve:
      serializedVersion: 2
      m_Curve:
      - time: 0
        value: {x: -129.126007, y: 4.42700005, z: -67.6520004}
        inSlope: {x: 521.280212, y: 3.23999381, z: 440.429962}
        outSlope: {x: 521.280212, y: 3.23999381, z: 440.429962}
        tangentMode: 0
      - time: .0333333351
        value: {x: -111.75, y: 4.53499985, z: -52.9710007}
        inSlope: {x: 521.280212, y: 3.23999381, z: 440.429962}
        outSlope: {x: 521.280212, y: 3.23999381, z: 440.429962}
        tangentMode: 0
      m_PreInfinity: 2
      m_PostInfinity: 2
    path: 
  m_ScaleCurves: []
  m_FloatCurves: []
  m_PPtrCurves: []
  m_SampleRate: 60
  m_WrapMode: 0
  m_Bounds:
    m_Center: {x: 0, y: 0, z: 0}
    m_Extent: {x: 0, y: 0, z: 0}
  m_ClipBindingConstant:
    genericBindings: []
    pptrCurveMapping: []
  m_AnimationClipSettings:
    serializedVersion: 2
    m_StartTime: 0
    m_StopTime: .0333333351
    m_OrientationOffsetY: 0
    m_Level: 0
    m_CycleOffset: 0
    m_LoopTime: 1
    m_LoopBlend: 0
    m_LoopBlendOrientation: 0
    m_LoopBlendPositionY: 0
    m_LoopBlendPositionXZ: 0
    m_KeepOriginalOrientation: 0
    m_KeepOriginalPositionY: 1
    m_KeepOriginalPositionXZ: 0
    m_HeightFromFeet: 0
    m_Mirror: 0
  m_EditorCurves:
  - curve:
      serializedVersion: 2
      m_Curve:
      - time: 0
        value: -129.126007
        inSlope: 521.280212
        outSlope: 521.280212
        tangentMode: 10
      - time: .0333333351
        value: -111.75
        inSlope: 521.280212
        outSlope: 521.280212
        tangentMode: 10
      m_PreInfinity: 2
      m_PostInfinity: 2
    attribute: m_LocalPosition.x
    path: 
    classID: 4
    script: {fileID: 0}
  - curve:
      serializedVersion: 2
      m_Curve:
      - time: 0
        value: 4.42700005
        inSlope: 3.23999381
        outSlope: 3.23999381
        tangentMode: 10
      - time: .0333333351
        value: 4.53499985
        inSlope: 3.23999381
        outSlope: 3.23999381
        tangentMode: 10
      m_PreInfinity: 2
      m_PostInfinity: 2
    attribute: m_LocalPosition.y
    path: 
    classID: 4
    script: {fileID: 0}
  - curve:
      serializedVersion: 2
      m_Curve:
      - time: 0
        value: -67.6520004
        inSlope: 440.429962
        outSlope: 440.429962
        tangentMode: 10
      - time: .0333333351
        value: -52.9710007
        inSlope: 440.429962
        outSlope: 440.429962
        tangentMode: 10
      m_PreInfinity: 2
      m_PostInfinity: 2
    attribute: m_LocalPosition.z
    path: 
    classID: 4
    script: {fileID: 0}
  - curve:
      serializedVersion: 2
      m_Curve:
      - time: 0
        value: 0
        inSlope: 0
        outSlope: 0
        tangentMode: 0
      - time: .0166666675
        value: 0
        inSlope: 0
        outSlope: 0
        tangentMode: 0
      - time: .0333333351
        value: 0
        inSlope: 0
        outSlope: 0
        tangentMode: 0
      m_PreInfinity: 2
      m_PostInfinity: 2
    attribute: m_LocalRotation.x
    path: 
    classID: 4
    script: {fileID: 0}
  - curve:
      serializedVersion: 2
      m_Curve:
      - time: 0
        value: .26377359
        inSlope: 14.0617361
        outSlope: 14.0617361
        tangentMode: 0
      - time: .0166666675
        value: .498135865
        inSlope: 13.0989027
        outSlope: 13.0989027
        tangentMode: 0
      - time: .0333333351
        value: .70040369
        inSlope: 12.1360693
        outSlope: 12.1360693
        tangentMode: 0
      m_PreInfinity: 2
      m_PostInfinity: 2
    attribute: m_LocalRotation.y
    path: 
    classID: 4
    script: {fileID: 0}
  - curve:
      serializedVersion: 2
      m_Curve:
      - time: 0
        value: 0
        inSlope: 0
        outSlope: 0
        tangentMode: 0
      - time: .0166666675
        value: 0
        inSlope: 0
        outSlope: 0
        tangentMode: 0
      - time: .0333333351
        value: 0
        inSlope: 0
        outSlope: 0
        tangentMode: 0
      m_PreInfinity: 2
      m_PostInfinity: 2
    attribute: m_LocalRotation.z
    path: 
    classID: 4
    script: {fileID: 0}
  - curve:
      serializedVersion: 2
      m_Curve:
      - time: 0
        value: .964584649
        inSlope: -5.84913921
        outSlope: -5.84913921
        tangentMode: 0
      - time: .0166666675
        value: .867098987
        inSlope: -7.5251317
        outSlope: -7.5251317
        tangentMode: 0
      - time: .0333333351
        value: .713746905
        inSlope: -9.20112419
        outSlope: -9.20112419
        tangentMode: 0
      m_PreInfinity: 2
      m_PostInfinity: 2
    attribute: m_LocalRotation.w
    path: 
    classID: 4
    script: {fileID: 0}
  m_EulerEditorCurves:
  - curve:
      serializedVersion: 2
      m_Curve:
      - time: 0
        value: 0
        inSlope: 0
        outSlope: 0
        tangentMode: 10
      - time: .0333333351
        value: 0
        inSlope: 0
        outSlope: 0
        tangentMode: 10
      m_PreInfinity: 2
      m_PostInfinity: 2
    attribute: localEulerAnglesBaked.x
    path: 
    classID: 4
    script: {fileID: 0}
  - curve:
      serializedVersion: 2
      m_Curve:
      - time: 0
        value: 30.5881805
        inSlope: 1749.91833
        outSlope: 1749.91833
        tangentMode: 10
      - time: .0333333351
        value: 88.9187927
        inSlope: 1749.91833
        outSlope: 1749.91833
        tangentMode: 10
      m_PreInfinity: 2
      m_PostInfinity: 2
    attribute: localEulerAnglesBaked.y
    path: 
    classID: 4
    script: {fileID: 0}
  - curve:
      serializedVersion: 2
      m_Curve:
      - time: 0
        value: 0
        inSlope: 0
        outSlope: 0
        tangentMode: 10
      - time: .0333333351
        value: 0
        inSlope: 0
        outSlope: 0
        tangentMode: 10
      m_PreInfinity: 2
      m_PostInfinity: 2
    attribute: localEulerAnglesBaked.z
    path: 
    classID: 4
    script: {fileID: 0}
  m_HasGenericRootTransform: 0
  m_HasMotionFloatCurves: 0
  m_GenerateMotionCurves: 0
  m_Events: []
